[
    {
        "type": "archive",
        "archive-type": "tar-gzip",
        "url": "https://static.crates.io/crates/adblock/adblock-0.3.15.crate",
        "sha256": "5e9106f026aebe0d8924a0c520e999b406629cd5b336c0b19743542ec1092134",
        "dest": "cargo/vendor/adblock-0.3.15"
    },
    {
        "type": "file",
        "url": "data:%7B%22package%22%3A%20%225e9106f026aebe0d8924a0c520e999b406629cd5b336c0b19743542ec1092134%22%2C%20%22files%22%3A%20%7B%7D%7D",
        "dest": "cargo/vendor/adblock-0.3.15",
        "dest-filename": ".cargo-checksum.json"
    },
    {
        "type": "archive",
        "archive-type": "tar-gzip",
        "url": "https://static.crates.io/crates/addr/addr-0.14.0.crate",
        "sha256": "c54ccac949a2afafdfc889e15c753bbc6ee8783e026bbe3d057b00b13907db70",
        "dest": "cargo/vendor/addr-0.14.0"
    },
    {
        "type": "file",
        "url": "data:%7B%22package%22%3A%20%22c54ccac949a2afafdfc889e15c753bbc6ee8783e026bbe3d057b00b13907db70%22%2C%20%22files%22%3A%20%7B%7D%7D",
        "dest": "cargo/vendor/addr-0.14.0",
        "dest-filename": ".cargo-checksum.json"
    },
    {
        "type": "archive",
        "archive-type": "tar-gzip",
        "url": "https://static.crates.io/crates/adler/adler-1.0.2.crate",
        "sha256": "f26201604c87b1e01bd3d98f8d5d9a8fcbb815e8cedb41ffccbeb4bf593a35fe",
        "dest": "cargo/vendor/adler-1.0.2"
    },
    {
        "type": "file",
        "url": "data:%7B%22package%22%3A%20%22f26201604c87b1e01bd3d98f8d5d9a8fcbb815e8cedb41ffccbeb4bf593a35fe%22%2C%20%22files%22%3A%20%7B%7D%7D",
        "dest": "cargo/vendor/adler-1.0.2",
        "dest-filename": ".cargo-checksum.json"
    },
    {
        "type": "archive",
        "archive-type": "tar-gzip",
        "url": "https://static.crates.io/crates/aho-corasick/aho-corasick-0.7.18.crate",
        "sha256": "1e37cfd5e7657ada45f742d6e99ca5788580b5c529dc78faf11ece6dc702656f",
        "dest": "cargo/vendor/aho-corasick-0.7.18"
    },
    {
        "type": "file",
        "url": "data:%7B%22package%22%3A%20%221e37cfd5e7657ada45f742d6e99ca5788580b5c529dc78faf11ece6dc702656f%22%2C%20%22files%22%3A%20%7B%7D%7D",
        "dest": "cargo/vendor/aho-corasick-0.7.18",
        "dest-filename": ".cargo-checksum.json"
    },
    {
        "type": "archive",
        "archive-type": "tar-gzip",
        "url": "https://static.crates.io/crates/autocfg/autocfg-1.0.1.crate",
        "sha256": "cdb031dd78e28731d87d56cc8ffef4a8f36ca26c38fe2de700543e627f8a464a",
        "dest": "cargo/vendor/autocfg-1.0.1"
    },
    {
        "type": "file",
        "url": "data:%7B%22package%22%3A%20%22cdb031dd78e28731d87d56cc8ffef4a8f36ca26c38fe2de700543e627f8a464a%22%2C%20%22files%22%3A%20%7B%7D%7D",
        "dest": "cargo/vendor/autocfg-1.0.1",
        "dest-filename": ".cargo-checksum.json"
    },
    {
        "type": "archive",
        "archive-type": "tar-gzip",
        "url": "https://static.crates.io/crates/base64/base64-0.13.0.crate",
        "sha256": "904dfeac50f3cdaba28fc6f57fdcddb75f49ed61346676a78c4ffe55877802fd",
        "dest": "cargo/vendor/base64-0.13.0"
    },
    {
        "type": "file",
        "url": "data:%7B%22package%22%3A%20%22904dfeac50f3cdaba28fc6f57fdcddb75f49ed61346676a78c4ffe55877802fd%22%2C%20%22files%22%3A%20%7B%7D%7D",
        "dest": "cargo/vendor/base64-0.13.0",
        "dest-filename": ".cargo-checksum.json"
    },
    {
        "type": "archive",
        "archive-type": "tar-gzip",
        "url": "https://static.crates.io/crates/bitflags/bitflags-1.3.1.crate",
        "sha256": "2da1976d75adbe5fbc88130ecd119529cf1cc6a93ae1546d8696ee66f0d21af1",
        "dest": "cargo/vendor/bitflags-1.3.1"
    },
    {
        "type": "file",
        "url": "data:%7B%22package%22%3A%20%222da1976d75adbe5fbc88130ecd119529cf1cc6a93ae1546d8696ee66f0d21af1%22%2C%20%22files%22%3A%20%7B%7D%7D",
        "dest": "cargo/vendor/bitflags-1.3.1",
        "dest-filename": ".cargo-checksum.json"
    },
    {
        "type": "archive",
        "archive-type": "tar-gzip",
        "url": "https://static.crates.io/crates/byteorder/byteorder-1.4.3.crate",
        "sha256": "14c189c53d098945499cdfa7ecc63567cf3886b3332b312a5b4585d8d3a6a610",
        "dest": "cargo/vendor/byteorder-1.4.3"
    },
    {
        "type": "file",
        "url": "data:%7B%22package%22%3A%20%2214c189c53d098945499cdfa7ecc63567cf3886b3332b312a5b4585d8d3a6a610%22%2C%20%22files%22%3A%20%7B%7D%7D",
        "dest": "cargo/vendor/byteorder-1.4.3",
        "dest-filename": ".cargo-checksum.json"
    },
    {
        "type": "archive",
        "archive-type": "tar-gzip",
        "url": "https://static.crates.io/crates/cc/cc-1.0.69.crate",
        "sha256": "e70cc2f62c6ce1868963827bd677764c62d07c3d9a3e1fb1177ee1a9ab199eb2",
        "dest": "cargo/vendor/cc-1.0.69"
    },
    {
        "type": "file",
        "url": "data:%7B%22package%22%3A%20%22e70cc2f62c6ce1868963827bd677764c62d07c3d9a3e1fb1177ee1a9ab199eb2%22%2C%20%22files%22%3A%20%7B%7D%7D",
        "dest": "cargo/vendor/cc-1.0.69",
        "dest-filename": ".cargo-checksum.json"
    },
    {
        "type": "archive",
        "archive-type": "tar-gzip",
        "url": "https://static.crates.io/crates/cfg-if/cfg-if-1.0.0.crate",
        "sha256": "baf1de4339761588bc0619e3cbc0120ee582ebb74b53b4efbf79117bd2da40fd",
        "dest": "cargo/vendor/cfg-if-1.0.0"
    },
    {
        "type": "file",
        "url": "data:%7B%22package%22%3A%20%22baf1de4339761588bc0619e3cbc0120ee582ebb74b53b4efbf79117bd2da40fd%22%2C%20%22files%22%3A%20%7B%7D%7D",
        "dest": "cargo/vendor/cfg-if-1.0.0",
        "dest-filename": ".cargo-checksum.json"
    },
    {
        "type": "archive",
        "archive-type": "tar-gzip",
        "url": "https://static.crates.io/crates/codespan-reporting/codespan-reporting-0.11.1.crate",
        "sha256": "3538270d33cc669650c4b093848450d380def10c331d38c768e34cac80576e6e",
        "dest": "cargo/vendor/codespan-reporting-0.11.1"
    },
    {
        "type": "file",
        "url": "data:%7B%22package%22%3A%20%223538270d33cc669650c4b093848450d380def10c331d38c768e34cac80576e6e%22%2C%20%22files%22%3A%20%7B%7D%7D",
        "dest": "cargo/vendor/codespan-reporting-0.11.1",
        "dest-filename": ".cargo-checksum.json"
    },
    {
        "type": "archive",
        "archive-type": "tar-gzip",
        "url": "https://static.crates.io/crates/crc32fast/crc32fast-1.2.1.crate",
        "sha256": "81156fece84ab6a9f2afdb109ce3ae577e42b1228441eded99bd77f627953b1a",
        "dest": "cargo/vendor/crc32fast-1.2.1"
    },
    {
        "type": "file",
        "url": "data:%7B%22package%22%3A%20%2281156fece84ab6a9f2afdb109ce3ae577e42b1228441eded99bd77f627953b1a%22%2C%20%22files%22%3A%20%7B%7D%7D",
        "dest": "cargo/vendor/crc32fast-1.2.1",
        "dest-filename": ".cargo-checksum.json"
    },
    {
        "type": "archive",
        "archive-type": "tar-gzip",
        "url": "https://static.crates.io/crates/cxx/cxx-1.0.52.crate",
        "sha256": "1466c2983a24f17f1138b375127b44127e96fbf55dd292e071817a5edcf40c9a",
        "dest": "cargo/vendor/cxx-1.0.52"
    },
    {
        "type": "file",
        "url": "data:%7B%22package%22%3A%20%221466c2983a24f17f1138b375127b44127e96fbf55dd292e071817a5edcf40c9a%22%2C%20%22files%22%3A%20%7B%7D%7D",
        "dest": "cargo/vendor/cxx-1.0.52",
        "dest-filename": ".cargo-checksum.json"
    },
    {
        "type": "archive",
        "archive-type": "tar-gzip",
        "url": "https://static.crates.io/crates/cxx-build/cxx-build-1.0.52.crate",
        "sha256": "244e17b87efe56fc8c1c1b64402537a67d8e90c768ca90c168179c0b2c096119",
        "dest": "cargo/vendor/cxx-build-1.0.52"
    },
    {
        "type": "file",
        "url": "data:%7B%22package%22%3A%20%22244e17b87efe56fc8c1c1b64402537a67d8e90c768ca90c168179c0b2c096119%22%2C%20%22files%22%3A%20%7B%7D%7D",
        "dest": "cargo/vendor/cxx-build-1.0.52",
        "dest-filename": ".cargo-checksum.json"
    },
    {
        "type": "archive",
        "archive-type": "tar-gzip",
        "url": "https://static.crates.io/crates/cxxbridge-flags/cxxbridge-flags-1.0.52.crate",
        "sha256": "ecc2de38d6ed086d51653206a0cb2517137db93dab297d047bd4158e0da9a41d",
        "dest": "cargo/vendor/cxxbridge-flags-1.0.52"
    },
    {
        "type": "file",
        "url": "data:%7B%22package%22%3A%20%22ecc2de38d6ed086d51653206a0cb2517137db93dab297d047bd4158e0da9a41d%22%2C%20%22files%22%3A%20%7B%7D%7D",
        "dest": "cargo/vendor/cxxbridge-flags-1.0.52",
        "dest-filename": ".cargo-checksum.json"
    },
    {
        "type": "archive",
        "archive-type": "tar-gzip",
        "url": "https://static.crates.io/crates/cxxbridge-macro/cxxbridge-macro-1.0.52.crate",
        "sha256": "0d75224fc5397490a22abac11c6ee28815263e3f4418a85ae37f93895c86b100",
        "dest": "cargo/vendor/cxxbridge-macro-1.0.52"
    },
    {
        "type": "file",
        "url": "data:%7B%22package%22%3A%20%220d75224fc5397490a22abac11c6ee28815263e3f4418a85ae37f93895c86b100%22%2C%20%22files%22%3A%20%7B%7D%7D",
        "dest": "cargo/vendor/cxxbridge-macro-1.0.52",
        "dest-filename": ".cargo-checksum.json"
    },
    {
        "type": "archive",
        "archive-type": "tar-gzip",
        "url": "https://static.crates.io/crates/either/either-1.6.1.crate",
        "sha256": "e78d4f1cc4ae33bbfc157ed5d5a5ef3bc29227303d595861deb238fcec4e9457",
        "dest": "cargo/vendor/either-1.6.1"
    },
    {
        "type": "file",
        "url": "data:%7B%22package%22%3A%20%22e78d4f1cc4ae33bbfc157ed5d5a5ef3bc29227303d595861deb238fcec4e9457%22%2C%20%22files%22%3A%20%7B%7D%7D",
        "dest": "cargo/vendor/either-1.6.1",
        "dest-filename": ".cargo-checksum.json"
    },
    {
        "type": "archive",
        "archive-type": "tar-gzip",
        "url": "https://static.crates.io/crates/flate2/flate2-1.0.20.crate",
        "sha256": "cd3aec53de10fe96d7d8c565eb17f2c687bb5518a2ec453b5b1252964526abe0",
        "dest": "cargo/vendor/flate2-1.0.20"
    },
    {
        "type": "file",
        "url": "data:%7B%22package%22%3A%20%22cd3aec53de10fe96d7d8c565eb17f2c687bb5518a2ec453b5b1252964526abe0%22%2C%20%22files%22%3A%20%7B%7D%7D",
        "dest": "cargo/vendor/flate2-1.0.20",
        "dest-filename": ".cargo-checksum.json"
    },
    {
        "type": "archive",
        "archive-type": "tar-gzip",
        "url": "https://static.crates.io/crates/form_urlencoded/form_urlencoded-1.0.1.crate",
        "sha256": "5fc25a87fa4fd2094bffb06925852034d90a17f0d1e05197d4956d3555752191",
        "dest": "cargo/vendor/form_urlencoded-1.0.1"
    },
    {
        "type": "file",
        "url": "data:%7B%22package%22%3A%20%225fc25a87fa4fd2094bffb06925852034d90a17f0d1e05197d4956d3555752191%22%2C%20%22files%22%3A%20%7B%7D%7D",
        "dest": "cargo/vendor/form_urlencoded-1.0.1",
        "dest-filename": ".cargo-checksum.json"
    },
    {
        "type": "archive",
        "archive-type": "tar-gzip",
        "url": "https://static.crates.io/crates/idna/idna-0.2.3.crate",
        "sha256": "418a0a6fab821475f634efe3ccc45c013f742efe03d853e8d3355d5cb850ecf8",
        "dest": "cargo/vendor/idna-0.2.3"
    },
    {
        "type": "file",
        "url": "data:%7B%22package%22%3A%20%22418a0a6fab821475f634efe3ccc45c013f742efe03d853e8d3355d5cb850ecf8%22%2C%20%22files%22%3A%20%7B%7D%7D",
        "dest": "cargo/vendor/idna-0.2.3",
        "dest-filename": ".cargo-checksum.json"
    },
    {
        "type": "archive",
        "archive-type": "tar-gzip",
        "url": "https://static.crates.io/crates/itertools/itertools-0.10.1.crate",
        "sha256": "69ddb889f9d0d08a67338271fa9b62996bc788c7796a5c18cf057420aaed5eaf",
        "dest": "cargo/vendor/itertools-0.10.1"
    },
    {
        "type": "file",
        "url": "data:%7B%22package%22%3A%20%2269ddb889f9d0d08a67338271fa9b62996bc788c7796a5c18cf057420aaed5eaf%22%2C%20%22files%22%3A%20%7B%7D%7D",
        "dest": "cargo/vendor/itertools-0.10.1",
        "dest-filename": ".cargo-checksum.json"
    },
    {
        "type": "archive",
        "archive-type": "tar-gzip",
        "url": "https://static.crates.io/crates/lazy_static/lazy_static-1.4.0.crate",
        "sha256": "e2abad23fbc42b3700f2f279844dc832adb2b2eb069b2df918f455c4e18cc646",
        "dest": "cargo/vendor/lazy_static-1.4.0"
    },
    {
        "type": "file",
        "url": "data:%7B%22package%22%3A%20%22e2abad23fbc42b3700f2f279844dc832adb2b2eb069b2df918f455c4e18cc646%22%2C%20%22files%22%3A%20%7B%7D%7D",
        "dest": "cargo/vendor/lazy_static-1.4.0",
        "dest-filename": ".cargo-checksum.json"
    },
    {
        "type": "archive",
        "archive-type": "tar-gzip",
        "url": "https://static.crates.io/crates/libc/libc-0.2.99.crate",
        "sha256": "a7f823d141fe0a24df1e23b4af4e3c7ba9e5966ec514ea068c93024aa7deb765",
        "dest": "cargo/vendor/libc-0.2.99"
    },
    {
        "type": "file",
        "url": "data:%7B%22package%22%3A%20%22a7f823d141fe0a24df1e23b4af4e3c7ba9e5966ec514ea068c93024aa7deb765%22%2C%20%22files%22%3A%20%7B%7D%7D",
        "dest": "cargo/vendor/libc-0.2.99",
        "dest-filename": ".cargo-checksum.json"
    },
    {
        "type": "archive",
        "archive-type": "tar-gzip",
        "url": "https://static.crates.io/crates/lifeguard/lifeguard-0.6.1.crate",
        "sha256": "89be94dbd775db37b46ca4f4bf5cf89adfb13ba197bfbcb69b2122848ee73c26",
        "dest": "cargo/vendor/lifeguard-0.6.1"
    },
    {
        "type": "file",
        "url": "data:%7B%22package%22%3A%20%2289be94dbd775db37b46ca4f4bf5cf89adfb13ba197bfbcb69b2122848ee73c26%22%2C%20%22files%22%3A%20%7B%7D%7D",
        "dest": "cargo/vendor/lifeguard-0.6.1",
        "dest-filename": ".cargo-checksum.json"
    },
    {
        "type": "archive",
        "archive-type": "tar-gzip",
        "url": "https://static.crates.io/crates/link-cplusplus/link-cplusplus-1.0.5.crate",
        "sha256": "8f1becd27d473556dc610b8afa1636ef90747b574a84553bc11e82371d5ef2d1",
        "dest": "cargo/vendor/link-cplusplus-1.0.5"
    },
    {
        "type": "file",
        "url": "data:%7B%22package%22%3A%20%228f1becd27d473556dc610b8afa1636ef90747b574a84553bc11e82371d5ef2d1%22%2C%20%22files%22%3A%20%7B%7D%7D",
        "dest": "cargo/vendor/link-cplusplus-1.0.5",
        "dest-filename": ".cargo-checksum.json"
    },
    {
        "type": "archive",
        "archive-type": "tar-gzip",
        "url": "https://static.crates.io/crates/matches/matches-0.1.9.crate",
        "sha256": "a3e378b66a060d48947b590737b30a1be76706c8dd7b8ba0f2fe3989c68a853f",
        "dest": "cargo/vendor/matches-0.1.9"
    },
    {
        "type": "file",
        "url": "data:%7B%22package%22%3A%20%22a3e378b66a060d48947b590737b30a1be76706c8dd7b8ba0f2fe3989c68a853f%22%2C%20%22files%22%3A%20%7B%7D%7D",
        "dest": "cargo/vendor/matches-0.1.9",
        "dest-filename": ".cargo-checksum.json"
    },
    {
        "type": "archive",
        "archive-type": "tar-gzip",
        "url": "https://static.crates.io/crates/memchr/memchr-2.4.0.crate",
        "sha256": "b16bd47d9e329435e309c58469fe0791c2d0d1ba96ec0954152a5ae2b04387dc",
        "dest": "cargo/vendor/memchr-2.4.0"
    },
    {
        "type": "file",
        "url": "data:%7B%22package%22%3A%20%22b16bd47d9e329435e309c58469fe0791c2d0d1ba96ec0954152a5ae2b04387dc%22%2C%20%22files%22%3A%20%7B%7D%7D",
        "dest": "cargo/vendor/memchr-2.4.0",
        "dest-filename": ".cargo-checksum.json"
    },
    {
        "type": "archive",
        "archive-type": "tar-gzip",
        "url": "https://static.crates.io/crates/miniz_oxide/miniz_oxide-0.4.4.crate",
        "sha256": "a92518e98c078586bc6c934028adcca4c92a53d6a958196de835170a01d84e4b",
        "dest": "cargo/vendor/miniz_oxide-0.4.4"
    },
    {
        "type": "file",
        "url": "data:%7B%22package%22%3A%20%22a92518e98c078586bc6c934028adcca4c92a53d6a958196de835170a01d84e4b%22%2C%20%22files%22%3A%20%7B%7D%7D",
        "dest": "cargo/vendor/miniz_oxide-0.4.4",
        "dest-filename": ".cargo-checksum.json"
    },
    {
        "type": "archive",
        "archive-type": "tar-gzip",
        "url": "https://static.crates.io/crates/num-traits/num-traits-0.2.14.crate",
        "sha256": "9a64b1ec5cda2586e284722486d802acf1f7dbdc623e2bfc57e65ca1cd099290",
        "dest": "cargo/vendor/num-traits-0.2.14"
    },
    {
        "type": "file",
        "url": "data:%7B%22package%22%3A%20%229a64b1ec5cda2586e284722486d802acf1f7dbdc623e2bfc57e65ca1cd099290%22%2C%20%22files%22%3A%20%7B%7D%7D",
        "dest": "cargo/vendor/num-traits-0.2.14",
        "dest-filename": ".cargo-checksum.json"
    },
    {
        "type": "archive",
        "archive-type": "tar-gzip",
        "url": "https://static.crates.io/crates/once_cell/once_cell-1.8.0.crate",
        "sha256": "692fcb63b64b1758029e0a96ee63e049ce8c5948587f2f7208df04625e5f6b56",
        "dest": "cargo/vendor/once_cell-1.8.0"
    },
    {
        "type": "file",
        "url": "data:%7B%22package%22%3A%20%22692fcb63b64b1758029e0a96ee63e049ce8c5948587f2f7208df04625e5f6b56%22%2C%20%22files%22%3A%20%7B%7D%7D",
        "dest": "cargo/vendor/once_cell-1.8.0",
        "dest-filename": ".cargo-checksum.json"
    },
    {
        "type": "archive",
        "archive-type": "tar-gzip",
        "url": "https://static.crates.io/crates/percent-encoding/percent-encoding-2.1.0.crate",
        "sha256": "d4fd5641d01c8f18a23da7b6fe29298ff4b55afcccdf78973b24cf3175fee32e",
        "dest": "cargo/vendor/percent-encoding-2.1.0"
    },
    {
        "type": "file",
        "url": "data:%7B%22package%22%3A%20%22d4fd5641d01c8f18a23da7b6fe29298ff4b55afcccdf78973b24cf3175fee32e%22%2C%20%22files%22%3A%20%7B%7D%7D",
        "dest": "cargo/vendor/percent-encoding-2.1.0",
        "dest-filename": ".cargo-checksum.json"
    },
    {
        "type": "archive",
        "archive-type": "tar-gzip",
        "url": "https://static.crates.io/crates/proc-macro2/proc-macro2-1.0.28.crate",
        "sha256": "5c7ed8b8c7b886ea3ed7dde405212185f423ab44682667c8c6dd14aa1d9f6612",
        "dest": "cargo/vendor/proc-macro2-1.0.28"
    },
    {
        "type": "file",
        "url": "data:%7B%22package%22%3A%20%225c7ed8b8c7b886ea3ed7dde405212185f423ab44682667c8c6dd14aa1d9f6612%22%2C%20%22files%22%3A%20%7B%7D%7D",
        "dest": "cargo/vendor/proc-macro2-1.0.28",
        "dest-filename": ".cargo-checksum.json"
    },
    {
        "type": "archive",
        "archive-type": "tar-gzip",
        "url": "https://static.crates.io/crates/psl/psl-2.0.42.crate",
        "sha256": "68eb2c00fc4edd7696b32a9a91d60e479ccf3b3e2823081ac2009fa01f3f116f",
        "dest": "cargo/vendor/psl-2.0.42"
    },
    {
        "type": "file",
        "url": "data:%7B%22package%22%3A%20%2268eb2c00fc4edd7696b32a9a91d60e479ccf3b3e2823081ac2009fa01f3f116f%22%2C%20%22files%22%3A%20%7B%7D%7D",
        "dest": "cargo/vendor/psl-2.0.42",
        "dest-filename": ".cargo-checksum.json"
    },
    {
        "type": "archive",
        "archive-type": "tar-gzip",
        "url": "https://static.crates.io/crates/psl-types/psl-types-2.0.7.crate",
        "sha256": "66b398073e7cdd6f05934389a8f5961e3aabfa66675b6f440df4e2c793d51a4f",
        "dest": "cargo/vendor/psl-types-2.0.7"
    },
    {
        "type": "file",
        "url": "data:%7B%22package%22%3A%20%2266b398073e7cdd6f05934389a8f5961e3aabfa66675b6f440df4e2c793d51a4f%22%2C%20%22files%22%3A%20%7B%7D%7D",
        "dest": "cargo/vendor/psl-types-2.0.7",
        "dest-filename": ".cargo-checksum.json"
    },
    {
        "type": "archive",
        "archive-type": "tar-gzip",
        "url": "https://static.crates.io/crates/quote/quote-1.0.9.crate",
        "sha256": "c3d0b9745dc2debf507c8422de05d7226cc1f0644216dfdfead988f9b1ab32a7",
        "dest": "cargo/vendor/quote-1.0.9"
    },
    {
        "type": "file",
        "url": "data:%7B%22package%22%3A%20%22c3d0b9745dc2debf507c8422de05d7226cc1f0644216dfdfead988f9b1ab32a7%22%2C%20%22files%22%3A%20%7B%7D%7D",
        "dest": "cargo/vendor/quote-1.0.9",
        "dest-filename": ".cargo-checksum.json"
    },
    {
        "type": "archive",
        "archive-type": "tar-gzip",
        "url": "https://static.crates.io/crates/regex/regex-1.5.4.crate",
        "sha256": "d07a8629359eb56f1e2fb1652bb04212c072a87ba68546a04065d525673ac461",
        "dest": "cargo/vendor/regex-1.5.4"
    },
    {
        "type": "file",
        "url": "data:%7B%22package%22%3A%20%22d07a8629359eb56f1e2fb1652bb04212c072a87ba68546a04065d525673ac461%22%2C%20%22files%22%3A%20%7B%7D%7D",
        "dest": "cargo/vendor/regex-1.5.4",
        "dest-filename": ".cargo-checksum.json"
    },
    {
        "type": "archive",
        "archive-type": "tar-gzip",
        "url": "https://static.crates.io/crates/regex-syntax/regex-syntax-0.6.25.crate",
        "sha256": "f497285884f3fcff424ffc933e56d7cbca511def0c9831a7f9b5f6153e3cc89b",
        "dest": "cargo/vendor/regex-syntax-0.6.25"
    },
    {
        "type": "file",
        "url": "data:%7B%22package%22%3A%20%22f497285884f3fcff424ffc933e56d7cbca511def0c9831a7f9b5f6153e3cc89b%22%2C%20%22files%22%3A%20%7B%7D%7D",
        "dest": "cargo/vendor/regex-syntax-0.6.25",
        "dest-filename": ".cargo-checksum.json"
    },
    {
        "type": "archive",
        "archive-type": "tar-gzip",
        "url": "https://static.crates.io/crates/rmp/rmp-0.8.10.crate",
        "sha256": "4f55e5fa1446c4d5dd1f5daeed2a4fe193071771a2636274d0d7a3b082aa7ad6",
        "dest": "cargo/vendor/rmp-0.8.10"
    },
    {
        "type": "file",
        "url": "data:%7B%22package%22%3A%20%224f55e5fa1446c4d5dd1f5daeed2a4fe193071771a2636274d0d7a3b082aa7ad6%22%2C%20%22files%22%3A%20%7B%7D%7D",
        "dest": "cargo/vendor/rmp-0.8.10",
        "dest-filename": ".cargo-checksum.json"
    },
    {
        "type": "archive",
        "archive-type": "tar-gzip",
        "url": "https://static.crates.io/crates/rmp-serde/rmp-serde-0.13.7.crate",
        "sha256": "011e1d58446e9fa3af7cdc1fb91295b10621d3ac4cb3a85cc86385ee9ca50cd3",
        "dest": "cargo/vendor/rmp-serde-0.13.7"
    },
    {
        "type": "file",
        "url": "data:%7B%22package%22%3A%20%22011e1d58446e9fa3af7cdc1fb91295b10621d3ac4cb3a85cc86385ee9ca50cd3%22%2C%20%22files%22%3A%20%7B%7D%7D",
        "dest": "cargo/vendor/rmp-serde-0.13.7",
        "dest-filename": ".cargo-checksum.json"
    },
    {
        "type": "archive",
        "archive-type": "tar-gzip",
        "url": "https://static.crates.io/crates/rmp-serde/rmp-serde-0.15.5.crate",
        "sha256": "723ecff9ad04f4ad92fe1c8ca6c20d2196d9286e9c60727c4cb5511629260e9d",
        "dest": "cargo/vendor/rmp-serde-0.15.5"
    },
    {
        "type": "file",
        "url": "data:%7B%22package%22%3A%20%22723ecff9ad04f4ad92fe1c8ca6c20d2196d9286e9c60727c4cb5511629260e9d%22%2C%20%22files%22%3A%20%7B%7D%7D",
        "dest": "cargo/vendor/rmp-serde-0.15.5",
        "dest-filename": ".cargo-checksum.json"
    },
    {
        "type": "archive",
        "archive-type": "tar-gzip",
        "url": "https://static.crates.io/crates/scratch/scratch-1.0.0.crate",
        "sha256": "7e114536316b51a5aa7a0e59fc49661fd263c5507dd08bd28de052e57626ce69",
        "dest": "cargo/vendor/scratch-1.0.0"
    },
    {
        "type": "file",
        "url": "data:%7B%22package%22%3A%20%227e114536316b51a5aa7a0e59fc49661fd263c5507dd08bd28de052e57626ce69%22%2C%20%22files%22%3A%20%7B%7D%7D",
        "dest": "cargo/vendor/scratch-1.0.0",
        "dest-filename": ".cargo-checksum.json"
    },
    {
        "type": "archive",
        "archive-type": "tar-gzip",
        "url": "https://static.crates.io/crates/seahash/seahash-3.0.7.crate",
        "sha256": "58f57ca1d128a43733fd71d583e837b1f22239a37ebea09cde11d8d9a9080f47",
        "dest": "cargo/vendor/seahash-3.0.7"
    },
    {
        "type": "file",
        "url": "data:%7B%22package%22%3A%20%2258f57ca1d128a43733fd71d583e837b1f22239a37ebea09cde11d8d9a9080f47%22%2C%20%22files%22%3A%20%7B%7D%7D",
        "dest": "cargo/vendor/seahash-3.0.7",
        "dest-filename": ".cargo-checksum.json"
    },
    {
        "type": "archive",
        "archive-type": "tar-gzip",
        "url": "https://static.crates.io/crates/serde/serde-1.0.127.crate",
        "sha256": "f03b9878abf6d14e6779d3f24f07b2cfa90352cfec4acc5aab8f1ac7f146fae8",
        "dest": "cargo/vendor/serde-1.0.127"
    },
    {
        "type": "file",
        "url": "data:%7B%22package%22%3A%20%22f03b9878abf6d14e6779d3f24f07b2cfa90352cfec4acc5aab8f1ac7f146fae8%22%2C%20%22files%22%3A%20%7B%7D%7D",
        "dest": "cargo/vendor/serde-1.0.127",
        "dest-filename": ".cargo-checksum.json"
    },
    {
        "type": "archive",
        "archive-type": "tar-gzip",
        "url": "https://static.crates.io/crates/serde_derive/serde_derive-1.0.127.crate",
        "sha256": "a024926d3432516606328597e0f224a51355a493b49fdd67e9209187cbe55ecc",
        "dest": "cargo/vendor/serde_derive-1.0.127"
    },
    {
        "type": "file",
        "url": "data:%7B%22package%22%3A%20%22a024926d3432516606328597e0f224a51355a493b49fdd67e9209187cbe55ecc%22%2C%20%22files%22%3A%20%7B%7D%7D",
        "dest": "cargo/vendor/serde_derive-1.0.127",
        "dest-filename": ".cargo-checksum.json"
    },
    {
        "type": "archive",
        "archive-type": "tar-gzip",
        "url": "https://static.crates.io/crates/syn/syn-1.0.74.crate",
        "sha256": "1873d832550d4588c3dbc20f01361ab00bfe741048f71e3fecf145a7cc18b29c",
        "dest": "cargo/vendor/syn-1.0.74"
    },
    {
        "type": "file",
        "url": "data:%7B%22package%22%3A%20%221873d832550d4588c3dbc20f01361ab00bfe741048f71e3fecf145a7cc18b29c%22%2C%20%22files%22%3A%20%7B%7D%7D",
        "dest": "cargo/vendor/syn-1.0.74",
        "dest-filename": ".cargo-checksum.json"
    },
    {
        "type": "archive",
        "archive-type": "tar-gzip",
        "url": "https://static.crates.io/crates/termcolor/termcolor-1.1.2.crate",
        "sha256": "2dfed899f0eb03f32ee8c6a0aabdb8a7949659e3466561fc0adf54e26d88c5f4",
        "dest": "cargo/vendor/termcolor-1.1.2"
    },
    {
        "type": "file",
        "url": "data:%7B%22package%22%3A%20%222dfed899f0eb03f32ee8c6a0aabdb8a7949659e3466561fc0adf54e26d88c5f4%22%2C%20%22files%22%3A%20%7B%7D%7D",
        "dest": "cargo/vendor/termcolor-1.1.2",
        "dest-filename": ".cargo-checksum.json"
    },
    {
        "type": "archive",
        "archive-type": "tar-gzip",
        "url": "https://static.crates.io/crates/tinyvec/tinyvec-1.3.1.crate",
        "sha256": "848a1e1181b9f6753b5e96a092749e29b11d19ede67dfbbd6c7dc7e0f49b5338",
        "dest": "cargo/vendor/tinyvec-1.3.1"
    },
    {
        "type": "file",
        "url": "data:%7B%22package%22%3A%20%22848a1e1181b9f6753b5e96a092749e29b11d19ede67dfbbd6c7dc7e0f49b5338%22%2C%20%22files%22%3A%20%7B%7D%7D",
        "dest": "cargo/vendor/tinyvec-1.3.1",
        "dest-filename": ".cargo-checksum.json"
    },
    {
        "type": "archive",
        "archive-type": "tar-gzip",
        "url": "https://static.crates.io/crates/tinyvec_macros/tinyvec_macros-0.1.0.crate",
        "sha256": "cda74da7e1a664f795bb1f8a87ec406fb89a02522cf6e50620d016add6dbbf5c",
        "dest": "cargo/vendor/tinyvec_macros-0.1.0"
    },
    {
        "type": "file",
        "url": "data:%7B%22package%22%3A%20%22cda74da7e1a664f795bb1f8a87ec406fb89a02522cf6e50620d016add6dbbf5c%22%2C%20%22files%22%3A%20%7B%7D%7D",
        "dest": "cargo/vendor/tinyvec_macros-0.1.0",
        "dest-filename": ".cargo-checksum.json"
    },
    {
        "type": "archive",
        "archive-type": "tar-gzip",
        "url": "https://static.crates.io/crates/twoway/twoway-0.2.2.crate",
        "sha256": "c57ffb460d7c24cd6eda43694110189030a3d1dfe418416d9468fd1c1d290b47",
        "dest": "cargo/vendor/twoway-0.2.2"
    },
    {
        "type": "file",
        "url": "data:%7B%22package%22%3A%20%22c57ffb460d7c24cd6eda43694110189030a3d1dfe418416d9468fd1c1d290b47%22%2C%20%22files%22%3A%20%7B%7D%7D",
        "dest": "cargo/vendor/twoway-0.2.2",
        "dest-filename": ".cargo-checksum.json"
    },
    {
        "type": "archive",
        "archive-type": "tar-gzip",
        "url": "https://static.crates.io/crates/unchecked-index/unchecked-index-0.2.2.crate",
        "sha256": "eeba86d422ce181a719445e51872fa30f1f7413b62becb52e95ec91aa262d85c",
        "dest": "cargo/vendor/unchecked-index-0.2.2"
    },
    {
        "type": "file",
        "url": "data:%7B%22package%22%3A%20%22eeba86d422ce181a719445e51872fa30f1f7413b62becb52e95ec91aa262d85c%22%2C%20%22files%22%3A%20%7B%7D%7D",
        "dest": "cargo/vendor/unchecked-index-0.2.2",
        "dest-filename": ".cargo-checksum.json"
    },
    {
        "type": "archive",
        "archive-type": "tar-gzip",
        "url": "https://static.crates.io/crates/unicode-bidi/unicode-bidi-0.3.5.crate",
        "sha256": "eeb8be209bb1c96b7c177c7420d26e04eccacb0eeae6b980e35fcb74678107e0",
        "dest": "cargo/vendor/unicode-bidi-0.3.5"
    },
    {
        "type": "file",
        "url": "data:%7B%22package%22%3A%20%22eeb8be209bb1c96b7c177c7420d26e04eccacb0eeae6b980e35fcb74678107e0%22%2C%20%22files%22%3A%20%7B%7D%7D",
        "dest": "cargo/vendor/unicode-bidi-0.3.5",
        "dest-filename": ".cargo-checksum.json"
    },
    {
        "type": "archive",
        "archive-type": "tar-gzip",
        "url": "https://static.crates.io/crates/unicode-normalization/unicode-normalization-0.1.19.crate",
        "sha256": "d54590932941a9e9266f0832deed84ebe1bf2e4c9e4a3554d393d18f5e854bf9",
        "dest": "cargo/vendor/unicode-normalization-0.1.19"
    },
    {
        "type": "file",
        "url": "data:%7B%22package%22%3A%20%22d54590932941a9e9266f0832deed84ebe1bf2e4c9e4a3554d393d18f5e854bf9%22%2C%20%22files%22%3A%20%7B%7D%7D",
        "dest": "cargo/vendor/unicode-normalization-0.1.19",
        "dest-filename": ".cargo-checksum.json"
    },
    {
        "type": "archive",
        "archive-type": "tar-gzip",
        "url": "https://static.crates.io/crates/unicode-width/unicode-width-0.1.8.crate",
        "sha256": "9337591893a19b88d8d87f2cec1e73fad5cdfd10e5a6f349f498ad6ea2ffb1e3",
        "dest": "cargo/vendor/unicode-width-0.1.8"
    },
    {
        "type": "file",
        "url": "data:%7B%22package%22%3A%20%229337591893a19b88d8d87f2cec1e73fad5cdfd10e5a6f349f498ad6ea2ffb1e3%22%2C%20%22files%22%3A%20%7B%7D%7D",
        "dest": "cargo/vendor/unicode-width-0.1.8",
        "dest-filename": ".cargo-checksum.json"
    },
    {
        "type": "archive",
        "archive-type": "tar-gzip",
        "url": "https://static.crates.io/crates/unicode-xid/unicode-xid-0.2.2.crate",
        "sha256": "8ccb82d61f80a663efe1f787a51b16b5a51e3314d6ac365b08639f52387b33f3",
        "dest": "cargo/vendor/unicode-xid-0.2.2"
    },
    {
        "type": "file",
        "url": "data:%7B%22package%22%3A%20%228ccb82d61f80a663efe1f787a51b16b5a51e3314d6ac365b08639f52387b33f3%22%2C%20%22files%22%3A%20%7B%7D%7D",
        "dest": "cargo/vendor/unicode-xid-0.2.2",
        "dest-filename": ".cargo-checksum.json"
    },
    {
        "type": "archive",
        "archive-type": "tar-gzip",
        "url": "https://static.crates.io/crates/url/url-2.2.2.crate",
        "sha256": "a507c383b2d33b5fc35d1861e77e6b383d158b2da5e14fe51b83dfedf6fd578c",
        "dest": "cargo/vendor/url-2.2.2"
    },
    {
        "type": "file",
        "url": "data:%7B%22package%22%3A%20%22a507c383b2d33b5fc35d1861e77e6b383d158b2da5e14fe51b83dfedf6fd578c%22%2C%20%22files%22%3A%20%7B%7D%7D",
        "dest": "cargo/vendor/url-2.2.2",
        "dest-filename": ".cargo-checksum.json"
    },
    {
        "type": "archive",
        "archive-type": "tar-gzip",
        "url": "https://static.crates.io/crates/winapi/winapi-0.3.9.crate",
        "sha256": "5c839a674fcd7a98952e593242ea400abe93992746761e38641405d28b00f419",
        "dest": "cargo/vendor/winapi-0.3.9"
    },
    {
        "type": "file",
        "url": "data:%7B%22package%22%3A%20%225c839a674fcd7a98952e593242ea400abe93992746761e38641405d28b00f419%22%2C%20%22files%22%3A%20%7B%7D%7D",
        "dest": "cargo/vendor/winapi-0.3.9",
        "dest-filename": ".cargo-checksum.json"
    },
    {
        "type": "archive",
        "archive-type": "tar-gzip",
        "url": "https://static.crates.io/crates/winapi-i686-pc-windows-gnu/winapi-i686-pc-windows-gnu-0.4.0.crate",
        "sha256": "ac3b87c63620426dd9b991e5ce0329eff545bccbbb34f3be09ff6fb6ab51b7b6",
        "dest": "cargo/vendor/winapi-i686-pc-windows-gnu-0.4.0"
    },
    {
        "type": "file",
        "url": "data:%7B%22package%22%3A%20%22ac3b87c63620426dd9b991e5ce0329eff545bccbbb34f3be09ff6fb6ab51b7b6%22%2C%20%22files%22%3A%20%7B%7D%7D",
        "dest": "cargo/vendor/winapi-i686-pc-windows-gnu-0.4.0",
        "dest-filename": ".cargo-checksum.json"
    },
    {
        "type": "archive",
        "archive-type": "tar-gzip",
        "url": "https://static.crates.io/crates/winapi-util/winapi-util-0.1.5.crate",
        "sha256": "70ec6ce85bb158151cae5e5c87f95a8e97d2c0c4b001223f33a334e3ce5de178",
        "dest": "cargo/vendor/winapi-util-0.1.5"
    },
    {
        "type": "file",
        "url": "data:%7B%22package%22%3A%20%2270ec6ce85bb158151cae5e5c87f95a8e97d2c0c4b001223f33a334e3ce5de178%22%2C%20%22files%22%3A%20%7B%7D%7D",
        "dest": "cargo/vendor/winapi-util-0.1.5",
        "dest-filename": ".cargo-checksum.json"
    },
    {
        "type": "archive",
        "archive-type": "tar-gzip",
        "url": "https://static.crates.io/crates/winapi-x86_64-pc-windows-gnu/winapi-x86_64-pc-windows-gnu-0.4.0.crate",
        "sha256": "712e227841d057c1ee1cd2fb22fa7e5a5461ae8e48fa2ca79ec42cfc1931183f",
        "dest": "cargo/vendor/winapi-x86_64-pc-windows-gnu-0.4.0"
    },
    {
        "type": "file",
        "url": "data:%7B%22package%22%3A%20%22712e227841d057c1ee1cd2fb22fa7e5a5461ae8e48fa2ca79ec42cfc1931183f%22%2C%20%22files%22%3A%20%7B%7D%7D",
        "dest": "cargo/vendor/winapi-x86_64-pc-windows-gnu-0.4.0",
        "dest-filename": ".cargo-checksum.json"
    },
    {
        "type": "file",
        "url": "data:%5Bsource.vendored-sources%5D%0Adirectory%20%3D%20%22cargo/vendor%22%0A%0A%5Bsource.crates-io%5D%0Areplace-with%20%3D%20%22vendored-sources%22%0A",
        "dest": "cargo",
        "dest-filename": "config"
    }
]